Presentations, Data Viz & More - Dancing Through the Years: A Data-Driven Look at Taylor Swift’s Music
…
Code

# Seeing the number of distinct values for each variable
taylor_all_songs |> 
  summarise(across(.cols = everything(),
                .fns = n_distinct)) |> 
  pivot_longer(cols = everything(),
               names_to = "Variable",
               values_to = "n_distinct")

# A tibble: 29 × 2
   Variable            n_distinct
   <chr>                    <int>
 1 album_name                  15
 2 ep                           3
 3 album_release               15
 4 track_number                31
 5 track_name                 273
 6 artist                      11
 7 featuring                   20
 8 bonus_track                  3
 9 promotional_release         40
10 single_release              62
# ℹ 19 more rows
…
